Application Task 2
…
pokemon <- read_csv("data/pokemon.csv")

2.1: How do Pokmon heights change after evolution?

Calculate the difference in heights pre and post evolution and save this as a new variable in the dataset. Calculate the percentage of Pokmon that grew during evolution.

REDO : What percent of them had an increase in height? 

(poke <- 
pokemon %>%
  mutate(height_diff = height_new - height) %>%
  mutate(grow_percent = ((height_new - height)/(height))*100))

## # A tibble: 75 x 29
##    name  species    cp    hp weight height power_up_stardu power_up_candy
##    <chr> <chr>   <dbl> <dbl>  <dbl>  <dbl>            <dbl>          <dbl>
##  1 Pidg Pidgey    384    56   2.31  0.34              2500              2
##  2 Pidg Pidgey    366    54   1.67  0.290             2500              2
##  3 Pidg Pidgey    353    55   1.94  0.3               3000              3
##  4 Pidg Pidgey    338    51   1.73  0.31              3000              3
##  5 Pidg Pidgey    242    45   1.44  0.27              1900              2
##  6 Pidg Pidgey    129    35   2.07  0.35               800              1
##  7 Pidg Pidgey     10    10   0.92  0.25               200              1
##  8 Pidg Pidgey     25    14   2.72  0.37               200              1
##  9 Pidg Pidgey     24    13   2.07  0.32               200              1
## 10 Pidg Pidgey    161    35   1.45  0.31              1000              1
## #  with 65 more rows, and 21 more variables: attack_weak <chr>,
## #   attack_weak_type <chr>, attack_weak_value <dbl>, attack_strong <chr>,
## #   attack_strong_type <chr>, attack_strong_value <dbl>, cp_new <dbl>,
## #   hp_new <dbl>, weight_new <dbl>, height_new <dbl>,
## #   power_up_stardust_new <dbl>, power_up_candy_new <dbl>,
## #   attack_weak_new <chr>, attack_weak_type_new <chr>,
## #   attack_weak_value_new <dbl>, attack_strong_new <chr>,
## #   attack_strong_type_new <chr>, attack_strong_value_new <dbl>,
## #   notes <chr>, height_diff <dbl>, grow_percent <dbl>
…
